<?xml version="1.0" encoding="UTF-8" standalone="no"?>
<!-- Created with Inkscape (http://www.inkscape.org/) -->

<svg
   xmlns:dc="http://purl.org/dc/elements/1.1/"
   xmlns:cc="http://creativecommons.org/ns#"
   xmlns:rdf="http://www.w3.org/1999/02/22-rdf-syntax-ns#"
   xmlns:svg="http://www.w3.org/2000/svg"
   xmlns="http://www.w3.org/2000/svg"
   xmlns:sodipodi="http://sodipodi.sourceforge.net/DTD/sodipodi-0.dtd"
   xmlns:inkscape="http://www.inkscape.org/namespaces/inkscape"
   width="210mm"
   height="297mm"
   viewBox="0 0 210 297"
   version="1.1"
   id="svg20950"
   inkscape:version="0.92.3 (2405546, 2018-03-11)"
   sodipodi:docname="inside_triangle_leftof.svg">
  <defs
     id="defs20944" />
  <sodipodi:namedview
     id="base"
     pagecolor="#ffffff"
     bordercolor="#666666"
     borderopacity="1.0"
     inkscape:pageopacity="0.0"
     inkscape:pageshadow="2"
     inkscape:zoom="5.8777383"
     inkscape:cx="380.96559"
     inkscape:cy="925.80173"
     inkscape:document-units="mm"
     inkscape:current-layer="layer1"
     showgrid="false"
     inkscape:window-width="1914"
     inkscape:window-height="1051"
     inkscape:window-x="0"
     inkscape:window-y="26"
     inkscape:window-maximized="0" />
  <metadata
     id="metadata20947">
    <rdf:RDF>
      <cc:Work
         rdf:about="">
        <dc:format>image/svg+xml</dc:format>
        <dc:type
           rdf:resource="http://purl.org/dc/dcmitype/StillImage" />
        <dc:title></dc:title>
      </cc:Work>
    </rdf:RDF>
  </metadata>
  <g
     inkscape:label="Layer 1"
     inkscape:groupmode="layer"
     id="layer1">
    <path
       style="opacity:1;fill:none;fill-opacity:1;stroke:#000000;stroke-width:0.65241838;stroke-miterlimit:4;stroke-dasharray:none;stroke-opacity:1"
       id="path209969"
       sodipodi:type="arc"
       sodipodi:cx="75.325531"
       sodipodi:cy="70.158493"
       sodipodi:rx="0.38150468"
       sodipodi:ry="0.38150468"
       sodipodi:start="5.6401285"
       sodipodi:end="5.6398427"
       sodipodi:open="true"
       d="m 75.630836,69.929726 a 0.38150468,0.38150468 0 0 1 -0.07652,0.534056 0.38150468,0.38150468 0 0 1 -0.534062,-0.07648 0.38150468,0.38150468 0 0 1 0.07644,-0.534067 0.38150468,0.38150468 0 0 1 0.534073,0.0764" />
    <path
       style="opacity:1;fill:none;fill-opacity:1;stroke:#000000;stroke-width:0.65241838;stroke-miterlimit:4;stroke-dasharray:none;stroke-opacity:1"
       id="path210004"
       sodipodi:type="arc"
       sodipodi:cx="94.012611"
       sodipodi:cy="37.273655"
       sodipodi:rx="0.38150468"
       sodipodi:ry="0.38150468"
       sodipodi:start="5.6401285"
       sodipodi:end="5.6398427"
       sodipodi:open="true"
       d="m 94.317917,37.044888 a 0.38150468,0.38150468 0 0 1 -0.07652,0.534056 0.38150468,0.38150468 0 0 1 -0.534061,-0.07648 0.38150468,0.38150468 0 0 1 0.07644,-0.534067 0.38150468,0.38150468 0 0 1 0.534072,0.0764" />
    <path
       d="m 94.583534,52.577313 a 0.38150468,0.38150468 0 0 1 -0.07652,0.534056 0.38150468,0.38150468 0 0 1 -0.534062,-0.07648 0.38150468,0.38150468 0 0 1 0.07644,-0.534068 0.38150468,0.38150468 0 0 1 0.534073,0.0764"
       sodipodi:open="true"
       sodipodi:end="5.6398427"
       sodipodi:start="5.6401285"
       sodipodi:ry="0.38150468"
       sodipodi:rx="0.38150468"
       sodipodi:cy="52.80608"
       sodipodi:cx="94.278229"
       sodipodi:type="arc"
       id="path210006"
       style="opacity:1;fill:none;fill-opacity:1;stroke:#000000;stroke-width:0.65241838;stroke-miterlimit:4;stroke-dasharray:none;stroke-opacity:1" />
    <path
       style="opacity:1;fill:none;fill-opacity:1;stroke:#000000;stroke-width:0.65241838;stroke-miterlimit:4;stroke-dasharray:none;stroke-opacity:1"
       id="path210012"
       sodipodi:type="arc"
       sodipodi:cx="122.10017"
       sodipodi:cy="69.68618"
       sodipodi:rx="0.38150468"
       sodipodi:ry="0.38150468"
       sodipodi:start="5.6401285"
       sodipodi:end="5.6398427"
       sodipodi:open="true"
       d="m 122.40547,69.457413 a 0.38150468,0.38150468 0 0 1 -0.0765,0.534056 0.38150468,0.38150468 0 0 1 -0.53407,-0.07648 0.38150468,0.38150468 0 0 1 0.0764,-0.534067 0.38150468,0.38150468 0 0 1 0.53408,0.0764" />
    <path
       d="m 108.06029,61.915367 a 0.38150468,0.38150468 0 0 1 -0.0765,0.534057 0.38150468,0.38150468 0 0 1 -0.53406,-0.07648 0.38150468,0.38150468 0 0 1 0.0764,-0.534067 0.38150468,0.38150468 0 0 1 0.53407,0.0764"
       sodipodi:open="true"
       sodipodi:end="5.6398427"
       sodipodi:start="5.6401285"
       sodipodi:ry="0.38150468"
       sodipodi:rx="0.38150468"
       sodipodi:cy="62.144135"
       sodipodi:cx="107.75498"
       sodipodi:type="arc"
       id="path210014"
       style="opacity:1;fill:none;fill-opacity:1;stroke:#000000;stroke-width:0.65241838;stroke-miterlimit:4;stroke-dasharray:none;stroke-opacity:1" />
    <path
       style="opacity:1;fill:none;fill-opacity:1;stroke:#000000;stroke-width:0.65241838;stroke-miterlimit:4;stroke-dasharray:none;stroke-opacity:1"
       id="path210016"
       sodipodi:type="arc"
       sodipodi:cx="85.689713"
       sodipodi:cy="63.618031"
       sodipodi:rx="0.38150468"
       sodipodi:ry="0.38150468"
       sodipodi:start="5.6401285"
       sodipodi:end="5.6398427"
       sodipodi:open="true"
       d="m 85.995018,63.389263 a 0.38150468,0.38150468 0 0 1 -0.07652,0.534057 0.38150468,0.38150468 0 0 1 -0.534062,-0.07648 0.38150468,0.38150468 0 0 1 0.07644,-0.534067 0.38150468,0.38150468 0 0 1 0.534073,0.0764" />
    <path
       style="fill:none;stroke:#000000;stroke-width:0.26458332px;stroke-linecap:butt;stroke-linejoin:miter;stroke-opacity:1"
       d="M 75.630771,69.929639 122.40541,69.457326"
       id="path16130"
       inkscape:connector-curvature="0"
       sodipodi:nodetypes="cc" />
    <path
       style="fill:none;stroke:#000000;stroke-width:0.26458332px;stroke-linecap:butt;stroke-linejoin:miter;stroke-opacity:1"
       d="M 85.995021,63.389264 108.06028,61.915368 94.317852,37.0448 85.995021,63.389264 94.583469,52.577225 94.317918,37.044887"
       id="path20996"
       inkscape:connector-curvature="0"
       sodipodi:nodetypes="cccccc" />
    <path
       style="fill:none;stroke:#000000;stroke-width:0.26458332px;stroke-linecap:butt;stroke-linejoin:miter;stroke-opacity:1"
       d="m 94.583592,52.577398 13.476688,9.337969"
       id="path20998"
       inkscape:connector-curvature="0" />
    <text
       xml:space="preserve"
       style="font-style:normal;font-weight:normal;font-size:4.93888889px;line-height:1.25;font-family:sans-serif;letter-spacing:0px;word-spacing:0px;fill:#000000;fill-opacity:1;stroke:none;stroke-width:0.26458332;-inkscape-font-specification:'sans-serif, Normal';font-stretch:normal;font-variant:normal;text-anchor:start;text-align:start;writing-mode:lr;font-variant-ligatures:normal;font-variant-caps:normal;font-variant-numeric:normal;font-feature-settings:normal;"
       x="70.585365"
       y="69.330276"
       id="text21002"><tspan
         sodipodi:role="line"
         id="tspan21000"
         x="70.585365"
         y="69.330276"
         style="stroke-width:0.26458332;-inkscape-font-specification:'sans-serif, Normal';font-family:sans-serif;font-weight:normal;font-style:normal;font-stretch:normal;font-variant:normal;font-size:4.93888889px;text-anchor:start;text-align:start;writing-mode:lr;font-variant-ligatures:normal;font-variant-caps:normal;font-variant-numeric:normal;font-feature-settings:normal;">a</tspan></text>
    <text
       xml:space="preserve"
       style="font-style:normal;font-variant:normal;font-weight:normal;font-stretch:normal;font-size:4.93888903px;line-height:1.25;font-family:sans-serif;-inkscape-font-specification:'sans-serif, Normal';font-variant-ligatures:normal;font-variant-caps:normal;font-variant-numeric:normal;font-feature-settings:normal;text-align:start;letter-spacing:0px;word-spacing:0px;writing-mode:lr-tb;text-anchor:start;fill:#000000;fill-opacity:1;stroke:none;stroke-width:0.26458332"
       x="123.04265"
       y="68.61132"
       id="text21006"><tspan
         sodipodi:role="line"
         id="tspan21004"
         x="123.04265"
         y="68.61132"
         style="font-style:normal;font-variant:normal;font-weight:normal;font-stretch:normal;font-size:4.93888903px;font-family:sans-serif;-inkscape-font-specification:'sans-serif, Normal';font-variant-ligatures:normal;font-variant-caps:normal;font-variant-numeric:normal;font-feature-settings:normal;text-align:start;writing-mode:lr-tb;text-anchor:start;stroke-width:0.26458332">b</tspan></text>
    <text
       xml:space="preserve"
       style="font-style:normal;font-variant:normal;font-weight:normal;font-stretch:normal;font-size:4.93888903px;line-height:1.25;font-family:sans-serif;-inkscape-font-specification:'sans-serif, Normal';font-variant-ligatures:normal;font-variant-caps:normal;font-variant-numeric:normal;font-feature-settings:normal;text-align:start;letter-spacing:0px;word-spacing:0px;writing-mode:lr-tb;text-anchor:start;fill:#000000;fill-opacity:1;stroke:none;stroke-width:0.26458332"
       x="93.133331"
       y="36.007622"
       id="text21010"><tspan
         sodipodi:role="line"
         id="tspan21008"
         x="93.133331"
         y="36.007622"
         style="font-style:normal;font-variant:normal;font-weight:normal;font-stretch:normal;font-size:4.93888903px;font-family:sans-serif;-inkscape-font-specification:'sans-serif, Normal';font-variant-ligatures:normal;font-variant-caps:normal;font-variant-numeric:normal;font-feature-settings:normal;text-align:start;writing-mode:lr-tb;text-anchor:start;stroke-width:0.26458332">c</tspan></text>
    <text
       xml:space="preserve"
       style="font-style:normal;font-variant:normal;font-weight:normal;font-stretch:normal;font-size:4.93888903px;line-height:1.25;font-family:sans-serif;-inkscape-font-specification:'sans-serif, Normal';font-variant-ligatures:normal;font-variant-caps:normal;font-variant-numeric:normal;font-feature-settings:normal;text-align:start;letter-spacing:0px;word-spacing:0px;writing-mode:lr-tb;text-anchor:start;fill:#000000;fill-opacity:1;stroke:none;stroke-width:0.26458332"
       x="81.433922"
       y="65.083366"
       id="text21014"><tspan
         sodipodi:role="line"
         id="tspan21012"
         x="81.433922"
         y="65.083366"
         style="font-style:normal;font-variant:normal;font-weight:normal;font-stretch:normal;font-size:4.93888903px;font-family:sans-serif;-inkscape-font-specification:'sans-serif, Normal';font-variant-ligatures:normal;font-variant-caps:normal;font-variant-numeric:normal;font-feature-settings:normal;text-align:start;writing-mode:lr-tb;text-anchor:start;stroke-width:0.26458332">d</tspan></text>
    <text
       xml:space="preserve"
       style="font-style:normal;font-variant:normal;font-weight:normal;font-stretch:normal;font-size:4.93888903px;line-height:1.25;font-family:sans-serif;-inkscape-font-specification:'sans-serif, Normal';font-variant-ligatures:normal;font-variant-caps:normal;font-variant-numeric:normal;font-feature-settings:normal;text-align:start;letter-spacing:0px;word-spacing:0px;writing-mode:lr-tb;text-anchor:start;fill:#000000;fill-opacity:1;stroke:none;stroke-width:0.26458332"
       x="109.00417"
       y="63.412125"
       id="text21018"><tspan
         sodipodi:role="line"
         id="tspan21016"
         x="109.00417"
         y="63.412125"
         style="font-style:normal;font-variant:normal;font-weight:normal;font-stretch:normal;font-size:4.93888903px;font-family:sans-serif;-inkscape-font-specification:'sans-serif, Normal';font-variant-ligatures:normal;font-variant-caps:normal;font-variant-numeric:normal;font-feature-settings:normal;text-align:start;writing-mode:lr-tb;text-anchor:start;stroke-width:0.26458332">e</tspan></text>
    <text
       xml:space="preserve"
       style="font-style:normal;font-weight:normal;font-size:4.93888889px;line-height:1.25;font-family:sans-serif;letter-spacing:0px;word-spacing:0px;fill:#000000;fill-opacity:1;stroke:none;stroke-width:0.26458332;-inkscape-font-specification:'sans-serif, Normal';font-stretch:normal;font-variant:normal;text-anchor:start;text-align:start;writing-mode:lr;font-variant-ligatures:normal;font-variant-caps:normal;font-variant-numeric:normal;font-feature-settings:normal;"
       x="96.986481"
       y="51.729538"
       id="text21022"><tspan
         sodipodi:role="line"
         id="tspan21020"
         x="96.986481"
         y="51.729538"
         style="stroke-width:0.26458332;-inkscape-font-specification:'sans-serif, Normal';font-family:sans-serif;font-weight:normal;font-style:normal;font-stretch:normal;font-variant:normal;font-size:4.93888889px;text-anchor:start;text-align:start;writing-mode:lr;font-variant-ligatures:normal;font-variant-caps:normal;font-variant-numeric:normal;font-feature-settings:normal;">f</tspan></text>
  </g>
</svg>
